…
``` r
laquinta <- laquinta %>%
  filter(country == "United States")
```

### Exercise 9

``` r
dennys %>%
  count(state, sort = TRUE)
```

    ## # A tibble: 51 × 2
    ##    state     n
    ##    <chr> <int>
    ##  1 CA      403
    ##  2 TX      200
    ##  3 FL      140
    ##  4 AZ       83
    ##  5 IL       56
    ##  6 NY       56
    ##  7 WA       49
    ##  8 OH       44
    ##  9 MO       42
    ## 10 PA       40
    ## # ℹ 41 more rows

``` r
laquinta %>%
  count(state, sort = TRUE)
```

    ## # A tibble: 48 × 2
    ##    state     n
    ##    <chr> <int>
    ##  1 TX      237
    ##  2 FL       74
    ##  3 CA       56
    ##  4 GA       41
    ##  5 TN       30
    ##  6 OK       29
    ##  7 LA       28
    ##  8 CO       27
    ##  9 NM       19
    ## 10 NY       19
    ## # ℹ 38 more rows

Denny’s has the most locations in California and the fewest locations in
Delaware. La Quinta has the most locations in Texas and the fewest
locations in Maine. These results do not surprise me, considering that
California and Texas are both very large states and Maine and Delaware
(especially Delaware) are much smaller.

``` r
dennys %>%
  count(state) %>%
  inner_join(states, by = c("state" = "abbreviation"))
```

    ## # A tibble: 51 × 4
    ##    state     n name                     area
    ##    <chr> <int> <chr>                   <dbl>
    ##  1 AK        3 Alaska               665384. 
    ##  2 AL        7 Alabama               52420. 
    ##  3 AR        9 Arkansas              53179. 
    ##  4 AZ       83 Arizona              113990. 
    ##  5 CA      403 California           163695. 
    ##  6 CO       29 Colorado             104094. 
    ##  7 CT       12 Connecticut            5543. 
    ##  8 DC        2 District of Columbia     68.3
    ##  9 DE        1 Delaware               2489. 
    ## 10 FL      140 Florida               65758. 
    ## # ℹ 41 more rows
…
